{
    "draw": 7,
    "columns": [
        {
            "data": "id",
            "name": "ID",
            "searchable": true,
            "orderable": true,
            "search": {
                "value": "",
                "regex": false
            }
        },
        {
            "data": "username",
            "name": "username",
            "searchable": true,
            "orderable": true,
            "search": {
                "value": "admin",
                "regex": false
            }
        },
        {
            "data": "name",
            "name": "NAME",
            "searchable": true,
            "orderable": true,
            "search": {
                "value": "",
                "regex": false
            }
        },
        {
            "data": "email",
            "name": "EMAIL",
            "searchable": true,
            "orderable": true,
            "search": {
                "value": "",
                "regex": false
            }
        },
        {
            "data": "expiresOn",
            "name": "EXPIRES_ON",
            "searchable": true,
            "orderable": true,
            "search": {
                "value": "",
                "regex": false
            }
        }
    ],
    "order": [
        {
            "column": 4,
            "dir": "desc"
        }
    ],
    "start": 0,
    "length": 10,
    "search": {
        "value": "",
        "regex": false
    }
}